<?xml version="1.0" encoding="UTF-8" standalone="no"?>
<!-- Created with Inkscape (http://www.inkscape.org/) -->

<svg
   xmlns:dc="http://purl.org/dc/elements/1.1/"
   xmlns:cc="http://creativecommons.org/ns#"
   xmlns:rdf="http://www.w3.org/1999/02/22-rdf-syntax-ns#"
   xmlns:svg="http://www.w3.org/2000/svg"
   xmlns="http://www.w3.org/2000/svg"
   xmlns:sodipodi="http://sodipodi.sourceforge.net/DTD/sodipodi-0.dtd"
   xmlns:inkscape="http://www.inkscape.org/namespaces/inkscape"
   width="10cm"
   height="10.3cm"
   viewBox="0 0 354.33071 364.96062"
   id="svg2"
   version="1.1"
   inkscape:version="0.91 r13725"
   sodipodi:docname="firefox_certif.svg"
   inkscape:export-filename="/media/h4ck3r/GrosDisque/Fichiersdetravail/Projets_Libres/LIVRESENCOURS/manueldumo/images/firefox_certifNEW.png"
   inkscape:export-xdpi="300"
   inkscape:export-ydpi="300">
  <defs
     id="defs4" />
  <sodipodi:namedview
     id="base"
     pagecolor="#ffffff"
     bordercolor="#666666"
     borderopacity="1.0"
     inkscape:pageopacity="0.0"
     inkscape:pageshadow="2"
     inkscape:zoom="1.4"
     inkscape:cx="-82.583181"
     inkscape:cy="175.04882"
     inkscape:document-units="px"
     inkscape:current-layer="layer1"
     showgrid="false"
     units="cm"
     inkscape:window-width="1920"
     inkscape:window-height="1026"
     inkscape:window-x="0"
     inkscape:window-y="0"
     inkscape:window-maximized="1"
     fit-margin-top="0.1"
     fit-margin-left="0.1"
     fit-margin-bottom="0.1"
     fit-margin-right="0.1"
     showguides="true"
     borderlayer="true" />
  <metadata
     id="metadata7">
    <rdf:RDF>
      <cc:Work
         rdf:about="">
        <dc:format>image/svg+xml</dc:format>
        <dc:type
           rdf:resource="http://purl.org/dc/dcmitype/StillImage" />
        <dc:title></dc:title>
      </cc:Work>
    </rdf:RDF>
  </metadata>
  <g
     inkscape:label="Calque 1"
     inkscape:groupmode="layer"
     id="layer1"
     transform="translate(-2.3897126,-687.72599)">
    <rect
       style="opacity:1;fill:#ffffff;fill-opacity:1;stroke:none;stroke-width:1.5;stroke-linejoin:round;stroke-miterlimit:4;stroke-dasharray:none;stroke-dashoffset:0;stroke-opacity:1"
       id="rect4226"
       width="372.85715"
       height="405.71429"
       x="-7.6102872"
       y="669.82947" />
    <rect
       style="opacity:1;fill:#ffffff;fill-opacity:1;stroke:#000000;stroke-width:1.79815888;stroke-linejoin:round;stroke-miterlimit:4;stroke-dasharray:none;stroke-dashoffset:0;stroke-opacity:1"
       id="rect4136"
       width="346.32889"
       height="160.6077"
       x="7.61554"
       y="692.11713"
       ry="8.4530382" />
    <g
       id="g4189"
       transform="matrix(0.61950081,-0.63030542,0.63393757,0.61595138,118.38041,531.43712)">
      <path
         id="rect4148-3"
         d="m 37.079917,306.64048 c -0.95342,0 -1.72193,0.76699 -1.72193,1.72041 l 0,4.42652 -4.37632,0 c -0.95343,0 -1.72042,0.76699 -1.72042,1.72041 0,0.95342 0.76699,1.72041 1.72042,1.72041 l 4.37632,0 0,4.62275 c 0,0.95341 0.76851,1.72041 1.72193,1.72041 0.95341,0 1.72041,-0.767 1.72041,-1.72041 l 0,-4.62275 4.67142,0 c 0.95342,0 1.72041,-0.76699 1.72041,-1.72041 0,-0.95342 -0.76699,-1.72041 -1.72041,-1.72041 l -4.67142,0 0,-4.42652 c 0,-0.95342 -0.767,-1.72041 -1.72041,-1.72041 z"
         style="opacity:1;fill:#000000;fill-opacity:1;stroke:none;stroke-width:3.54330707;stroke-linejoin:round;stroke-miterlimit:4;stroke-dasharray:none;stroke-dashoffset:0;stroke-opacity:1"
         inkscape:connector-curvature="0" />
      <rect
         style="opacity:1;fill:#000000;fill-opacity:1;stroke:none;stroke-width:3.54330707;stroke-linejoin:round;stroke-miterlimit:4;stroke-dasharray:none;stroke-dashoffset:0;stroke-opacity:1"
         id="rect4192"
         width="13.768497"
         height="3.0596659"
         x="227.25305"
         y="196.33365"
         transform="matrix(0.69891616,0.71520361,-0.71520361,0.69891616,0,0)"
         ry="1.529833" />
      <flowRoot
         xml:space="preserve"
         id="flowRoot4194"
         style="font-style:normal;font-weight:normal;font-size:40px;line-height:125%;font-family:sans-serif;letter-spacing:0px;word-spacing:0px;fill:#000000;fill-opacity:1;stroke:none;stroke-width:1px;stroke-linecap:butt;stroke-linejoin:miter;stroke-opacity:1"
         transform="matrix(0.69891616,0.71520361,-0.71520361,0.69891616,118.99393,338.67144)"><flowRegion
           id="flowRegion4196"><rect
             id="rect4198"
             width="145.46196"
             height="150.00766"
             x="43.941635"
             y="98.140587" /></flowRegion><flowPara
           id="flowPara4200" /></flowRoot>      <text
         xml:space="preserve"
         style="font-style:normal;font-weight:normal;font-size:40px;line-height:125%;font-family:sans-serif;letter-spacing:0px;word-spacing:0px;fill:#000000;fill-opacity:1;stroke:none;stroke-width:1px;stroke-linecap:butt;stroke-linejoin:miter;stroke-opacity:1"
         x="252.14975"
         y="141.14725"
         id="text4218"
         sodipodi:linespacing="125%"
         transform="matrix(0.69891616,0.71520361,-0.71520361,0.69891616,0,0)"><tspan
           sodipodi:role="line"
           id="tspan4220"
           x="252.14975"
           y="141.14725" /></text>
    </g>
    <text
       xml:space="preserve"
       style="font-style:normal;font-weight:normal;font-size:11.27164936px;line-height:125%;font-family:sans-serif;letter-spacing:0px;word-spacing:0px;fill:#000000;fill-opacity:1;stroke:none;stroke-width:1px;stroke-linecap:butt;stroke-linejoin:miter;stroke-opacity:1"
       x="169.77409"
       y="703.77893"
       id="text4620"
       sodipodi:linespacing="125%"><tspan
         sodipodi:role="line"
         id="tspan4622"
         x="169.77409"
         y="703.77893"
         style="font-style:italic;font-variant:normal;font-weight:normal;font-stretch:normal;font-family:sans-serif;-inkscape-font-specification:'sans-serif Italic'">Firefox</tspan></text>
    <circle
       style="opacity:1;fill:#b3b3b3;fill-opacity:1;stroke:none;stroke-width:1.5;stroke-linejoin:round;stroke-miterlimit:4;stroke-dasharray:none;stroke-dashoffset:0;stroke-opacity:1"
       id="path4626"
       cx="18.585304"
       cy="717.85266"
       r="8.0744638" />
    <text
       xml:space="preserve"
       style="font-style:normal;font-weight:normal;font-size:18.77405167px;line-height:125%;font-family:sans-serif;letter-spacing:0px;word-spacing:0px;fill:#000000;fill-opacity:1;stroke:none;stroke-width:1px;stroke-linecap:butt;stroke-linejoin:miter;stroke-opacity:1"
       x="13.831577"
       y="625.40491"
       id="text4628"
       sodipodi:linespacing="125%"
       transform="scale(0.86334276,1.1582885)"><tspan
         sodipodi:role="line"
         id="tspan4630"
         x="13.831577"
         y="625.40491">←</tspan></text>
    <rect
       style="opacity:1;fill:#b3b3b3;fill-opacity:1;stroke:#000000;stroke-width:0.94038957;stroke-linejoin:round;stroke-miterlimit:4;stroke-dasharray:none;stroke-dashoffset:0;stroke-opacity:1"
       id="rect4652"
       width="199.72081"
       height="14.77755"
       x="47.130348"
       y="710.4184"
       ry="0.60639453" />
    <text
       xml:space="preserve"
       style="font-style:normal;font-weight:normal;font-size:11.41806126px;line-height:125%;font-family:sans-serif;letter-spacing:0px;word-spacing:0px;fill:#000000;fill-opacity:1;stroke:none;stroke-width:1px;stroke-linecap:butt;stroke-linejoin:miter;stroke-opacity:1"
       x="31.479303"
       y="1173.5848"
       id="text4632"
       sodipodi:linespacing="125%"
       transform="scale(1.6283157,0.61413153)"><tspan
         sodipodi:role="line"
         id="tspan4634"
         x="31.479303"
         y="1173.5848">i</tspan></text>
    <circle
       style="opacity:1;fill:none;fill-opacity:1;stroke:#000000;stroke-width:0.60322863;stroke-linejoin:round;stroke-miterlimit:4;stroke-dasharray:none;stroke-dashoffset:0;stroke-opacity:1"
       id="path4636"
       cx="53.834187"
       cy="718.1322"
       r="3.7881327" />
    <text
       xml:space="preserve"
       style="font-style:normal;font-weight:normal;font-size:10.73284912px;line-height:125%;font-family:sans-serif;letter-spacing:0px;word-spacing:0px;fill:#000000;fill-opacity:1;stroke:none;stroke-width:1px;stroke-linecap:butt;stroke-linejoin:miter;stroke-opacity:1"
       x="81.928711"
       y="721.02637"
       id="text4642"
       sodipodi:linespacing="125%"><tspan
         sodipodi:role="line"
         id="tspan4644"
         x="81.928711"
         y="721.02637">https://fr.wikipedia.org/wiki</tspan></text>
    <rect
       style="opacity:1;fill:#b3b3b3;fill-opacity:1;stroke:#000000;stroke-width:0.94038957;stroke-linejoin:round;stroke-miterlimit:4;stroke-dasharray:none;stroke-dashoffset:0;stroke-opacity:1"
       id="rect4652-3"
       width="68.896164"
       height="14.60548"
       x="249.54224"
       y="710.63684"
       ry="0.59933347" />
    <circle
       style="opacity:1;fill:none;fill-opacity:1;stroke:#000000;stroke-width:1.20657098;stroke-linejoin:round;stroke-miterlimit:4;stroke-dasharray:none;stroke-dashoffset:0;stroke-opacity:1"
       id="path4648"
       cx="255.64326"
       cy="716.3869"
       r="3.0941494" />
    <rect
       style="opacity:1;fill:#000000;fill-opacity:1;stroke:none;stroke-width:1.43700004;stroke-linejoin:round;stroke-miterlimit:4;stroke-dasharray:none;stroke-dashoffset:0;stroke-opacity:1"
       id="rect4650"
       width="6.6944103"
       height="1.6242946"
       x="626.05768"
       y="435.35577"
       ry="0.81214732"
       transform="matrix(0.81513972,0.5792644,-0.5792644,0.81513972,0,0)" />
    <path
       sodipodi:type="star"
       style="opacity:1;fill:#000000;fill-opacity:1;stroke:none;stroke-width:1.5;stroke-linejoin:round;stroke-miterlimit:4;stroke-dasharray:none;stroke-dashoffset:0;stroke-opacity:1"
       id="path4646"
       sodipodi:sides="5"
       sodipodi:cx="238.11122"
       sodipodi:cy="717.98621"
       sodipodi:r1="5.3705859"
       sodipodi:r2="2.6852932"
       sodipodi:arg1="1.3633001"
       sodipodi:arg2="1.9916186"
       inkscape:flatsided="false"
       inkscape:rounded="0"
       inkscape:randomized="0"
       d="m 239.21762,723.24159 -2.20337,-2.80437 -3.5593,0.22524 1.98624,-2.96213 -1.3141,-3.3155 3.43093,0.97368 2.74715,-2.27432 0.13419,3.56389 3.01193,1.90988 -3.348,1.22893 z"
       inkscape:transform-center-x="-0.34187047"
       inkscape:transform-center-y="0.17664562" />
    <rect
       style="opacity:1;fill:#b3b3b3;fill-opacity:1;stroke:#000000;stroke-width:0.94038957;stroke-linejoin:round;stroke-miterlimit:4;stroke-dasharray:none;stroke-dashoffset:0;stroke-opacity:1"
       id="rect4669"
       width="1.4553648"
       height="14.553648"
       x="228.0434"
       y="710.64227"
       ry="0.72768241" />
    <circle
       style="opacity:1;fill:#b3b3b3;fill-opacity:1;stroke:none;stroke-width:1.5;stroke-linejoin:round;stroke-miterlimit:4;stroke-dasharray:none;stroke-dashoffset:0;stroke-opacity:1"
       id="path4626-6"
       cx="-36.634106"
       cy="718.01105"
       r="8.0744638"
       transform="scale(-1,1)" />
    <text
       xml:space="preserve"
       style="font-style:normal;font-weight:normal;font-size:18.77405167px;line-height:125%;font-family:sans-serif;letter-spacing:0px;word-spacing:0px;fill:#000000;fill-opacity:1;stroke:none;stroke-width:1px;stroke-linecap:butt;stroke-linejoin:miter;stroke-opacity:1"
       x="-50.128429"
       y="625.54156"
       id="text4628-7"
       sodipodi:linespacing="125%"
       transform="scale(-0.86334276,1.1582885)"><tspan
         sodipodi:role="line"
         id="tspan4630-5"
         x="-50.128429"
         y="625.54156">←</tspan></text>
    <path
       style="fill:#cccccc;fill-rule:evenodd;stroke:#000000;stroke-width:1.4020344px;stroke-linecap:butt;stroke-linejoin:miter;stroke-opacity:1"
       d="m 67.092399,724.09775 -5.240044,5.22279 -43.205794,0 0,85.97572 236.327609,0 0.42431,-85.97448 -183.306657,0 z"
       id="path4945"
       inkscape:connector-curvature="0"
       sodipodi:nodetypes="cccccccc" />
    <text
       xml:space="preserve"
       style="font-style:normal;font-weight:normal;font-size:10.34784603px;line-height:125%;font-family:sans-serif;letter-spacing:0px;word-spacing:0px;fill:#000000;fill-opacity:1;stroke:none;stroke-width:1px;stroke-linecap:butt;stroke-linejoin:miter;stroke-opacity:1"
       x="83.686111"
       y="751.73871"
       id="text4947"
       sodipodi:linespacing="125%"><tspan
         sodipodi:role="line"
         id="tspan4949"
         x="83.686111"
         y="751.73871"
         style="font-style:normal;font-variant:normal;font-weight:bold;font-stretch:normal;font-family:sans-serif;-inkscape-font-specification:'sans-serif Bold'">fr.wikipedia.org</tspan></text>
    <text
       xml:space="preserve"
       style="font-style:normal;font-weight:normal;font-size:7.03659534px;line-height:125%;font-family:sans-serif;letter-spacing:0px;word-spacing:0px;fill:#000000;fill-opacity:1;stroke:none;stroke-width:1px;stroke-linecap:butt;stroke-linejoin:miter;stroke-opacity:1"
       x="82.931923"
       y="764.01538"
       id="text4951"
       sodipodi:linespacing="125%"><tspan
         sodipodi:role="line"
         id="tspan4953"
         x="82.931923"
         y="764.01538">Connexion sécurisée</tspan></text>
    <text
       xml:space="preserve"
       style="font-style:normal;font-weight:normal;font-size:10.34784603px;line-height:125%;font-family:sans-serif;letter-spacing:0px;word-spacing:0px;fill:#000000;fill-opacity:1;stroke:none;stroke-width:1px;stroke-linecap:butt;stroke-linejoin:miter;stroke-opacity:1"
       x="82.0774"
       y="781.62897"
       id="text4947-2"
       sodipodi:linespacing="125%"><tspan
         sodipodi:role="line"
         id="tspan4949-5"
         x="82.0774"
         y="781.62897"
         style="font-style:normal;font-variant:normal;font-weight:normal;font-stretch:normal;font-family:sans-serif;-inkscape-font-specification:sans-serif">Vérifié par DigiCert Inc</tspan></text>
    <text
       xml:space="preserve"
       style="font-style:normal;font-weight:normal;font-size:13.3310585px;line-height:125%;font-family:sans-serif;letter-spacing:0px;word-spacing:0px;fill:#000000;fill-opacity:1;stroke:none;stroke-width:1px;stroke-linecap:butt;stroke-linejoin:miter;stroke-opacity:1"
       x="82.099098"
       y="806.552"
       id="text5001"
       sodipodi:linespacing="125%"><tspan
         sodipodi:role="line"
         id="tspan5003"
         x="82.099098"
         y="806.552"
         style="font-style:normal;font-variant:normal;font-weight:bold;font-stretch:normal;font-family:sans-serif;-inkscape-font-specification:'sans-serif Bold'">Plus d'informations</tspan></text>
    <rect
       style="opacity:1;fill:none;fill-opacity:1;stroke:#000000;stroke-width:4.06096077;stroke-linejoin:round;stroke-miterlimit:4;stroke-dasharray:none;stroke-dashoffset:0;stroke-opacity:1"
       id="rect4638"
       width="20.764271"
       height="23.302637"
       x="33.976551"
       y="751.81543"
       ry="11.651319" />
    <rect
       style="opacity:1;fill:#000000;fill-opacity:1;stroke:none;stroke-width:1.5;stroke-linejoin:round;stroke-miterlimit:4;stroke-dasharray:none;stroke-dashoffset:0;stroke-opacity:1"
       id="rect4640"
       width="30.460407"
       height="24.114487"
       x="29.001583"
       y="762.83167"
       ry="0" />
    <path
       style="fill:none;fill-rule:evenodd;stroke:#000000;stroke-width:1px;stroke-linecap:butt;stroke-linejoin:miter;stroke-opacity:1"
       d="m 70.694482,791.31429 178.796998,0"
       id="path4200"
       inkscape:connector-curvature="0" />
    <rect
       style="opacity:1;fill:none;fill-opacity:1;stroke:#000000;stroke-width:1.08508313;stroke-linejoin:round;stroke-miterlimit:4;stroke-dasharray:none;stroke-dashoffset:0;stroke-opacity:1"
       id="rect4638-3"
       width="5.5481849"
       height="6.2264328"
       x="64.394356"
       y="713.55963"
       ry="3.1132164" />
    <rect
       style="opacity:1;fill:#000000;fill-opacity:1;stroke:none;stroke-width:1.5;stroke-linejoin:round;stroke-miterlimit:4;stroke-dasharray:none;stroke-dashoffset:0;stroke-opacity:1"
       id="rect4640-6"
       width="8.138979"
       height="6.4433575"
       x="63.06506"
       y="716.50317"
       ry="0" />
    <rect
       style="opacity:1;fill:#ffffff;fill-opacity:1;stroke:#000000;stroke-width:1.26644099;stroke-linejoin:round;stroke-miterlimit:4;stroke-dasharray:none;stroke-dashoffset:0;stroke-opacity:1"
       id="rect4136-5"
       width="334.17554"
       height="227.87653"
       x="16.39131"
       y="823.20221"
       ry="11.993504" />
    <flowRoot
       xml:space="preserve"
       id="flowRoot4220"
       style="font-style:normal;font-weight:normal;font-size:31.28972816px;line-height:125%;font-family:sans-serif;letter-spacing:0px;word-spacing:0px;fill:#000000;fill-opacity:1;stroke:none;stroke-width:1px;stroke-linecap:butt;stroke-linejoin:miter;stroke-opacity:1"
       transform="matrix(0.85444456,0,0,0.85444456,329.13405,-78.19226)"><flowRegion
         id="flowRegion4222"><rect
           id="rect4224"
           width="625.03632"
           height="282.09604"
           x="-352.97946"
           y="1056.9309" /></flowRegion><flowPara
         id="flowPara4226"
         style="font-size:7.82243204px;line-height:150%">Général   Détails</flowPara><flowPara
         id="flowPara4228"
         style="font-size:7.82243204px;line-height:150%" /><flowPara
         id="flowPara4230"
         style="font-style:normal;font-variant:normal;font-weight:bold;font-stretch:normal;font-size:7.82243204px;line-height:150%;font-family:sans-serif;-inkscape-font-specification:'sans-serif Bold'">Ce certificat a été vérifié pour les utilisations suivantes :</flowPara><flowPara
         id="flowPara4234"
         style="font-size:7.82243204px;line-height:150%">    Certificat client SSL</flowPara><flowPara
         id="flowPara4236"
         style="font-size:7.82243204px;line-height:150%">    Certificat serveur SSL</flowPara><flowPara
         id="flowPara4238"
         style="font-size:7.82243204px;line-height:150%" /><flowPara
         id="flowPara4240"
         style="font-style:normal;font-variant:normal;font-weight:bold;font-stretch:normal;font-size:7.82243204px;line-height:150%;font-family:sans-serif;-inkscape-font-specification:'sans-serif Bold'">Émis pour</flowPara><flowPara
         style="font-size:7.82243204px;line-height:150%"
         id="flowPara4310">Nom commun (CN)                  *.wikipedia.org</flowPara><flowPara
         style="font-size:7.82243204px;line-height:150%"
         id="flowPara4282">Organisation (O)                      Wikimedia Foundation, Inc.</flowPara><flowPara
         style="font-size:7.82243204px;line-height:150%"
         id="flowPara4284">Unité d'organisation (OU)        &lt;Ne fait pas partie du certificat&gt;</flowPara><flowPara
         style="font-size:7.82243204px;line-height:150%"
         id="flowPara4286">Numéro de série                       05:A9:5C:0D:34:A8:31:F3:7F:8A:5F:72:9C:C2:3C:74</flowPara><flowPara
         style="font-style:normal;font-variant:normal;font-weight:bold;font-stretch:normal;font-size:7.82243204px;line-height:150%;font-family:sans-serif;-inkscape-font-specification:'sans-serif Bold'"
         id="flowPara4288">Émis par</flowPara><flowPara
         style="font-size:7.82243204px;line-height:150%"
         id="flowPara4312">Nom commun (CN)                   DigiCert SHA2 High Assurance Server CA</flowPara><flowPara
         style="font-size:7.82243204px;line-height:150%"
         id="flowPara4290">Organisation (O)                       Digicert Inc</flowPara><flowPara
         style="font-size:7.82243204px;line-height:150%"
         id="flowPara4292">Unité d'organisation (OU)         www.digicert.com</flowPara><flowPara
         style="font-style:normal;font-variant:normal;font-weight:bold;font-stretch:normal;font-size:7.82243204px;line-height:150%;font-family:sans-serif;-inkscape-font-specification:'sans-serif Bold'"
         id="flowPara4294">Période de validité</flowPara><flowPara
         style="font-size:7.82243204px;line-height:150%"
         id="flowPara4296">Débute le                                  19/12/2016</flowPara><flowPara
         style="font-size:7.82243204px;line-height:150%"
         id="flowPara4298">Expire le                                    03/01/2018</flowPara><flowPara
         style="font-style:normal;font-variant:normal;font-weight:bold;font-stretch:normal;font-size:7.82243204px;line-height:150%;font-family:sans-serif;-inkscape-font-specification:'sans-serif Bold'"
         id="flowPara4300">Empreintes numériques</flowPara><flowPara
         style="font-size:7.82243204px;line-height:150%"
         id="flowPara4302">Empreinte numérique SHA-256 E8:04:B7:5C:F2:B5:0B:1F:41:EE:B1:BB:90:81:17:8D:</flowPara><flowPara
         style="font-size:7.82243204px;line-height:150%"
         id="flowPara4306">                                                  86:86:3F:93:25:3D:10:0D:85:8D:FB:3D:51:20:B8:6B</flowPara><flowPara
         style="font-size:7.82243204px;line-height:150%"
         id="flowPara4304">Empreinte numérique SHA1    1B:27:6F:BE:CD:10:49:C8:F2:F1:72:C8:40:99:D2:19:25:78:B9:9C</flowPara><flowPara
         id="flowPara4242"
         style="font-size:7.82243204px;line-height:150%" /><flowPara
         id="flowPara4244"
         style="font-size:7.82243204px;line-height:150%" /><flowPara
         id="flowPara4246"
         style="font-size:7.82243204px;line-height:150%" /><flowPara
         id="flowPara4248"
         style="font-size:7.82243204px;line-height:150%" /><flowPara
         id="flowPara4250"
         style="font-size:7.82243204px;line-height:150%" /><flowPara
         id="flowPara4252"
         style="font-size:7.82243204px;line-height:150%" /><flowPara
         id="flowPara4254"
         style="font-size:7.82243204px;line-height:150%" /><flowPara
         id="flowPara4256"
         style="font-size:7.82243204px;line-height:150%" /><flowPara
         id="flowPara4258"
         style="font-size:7.82243204px;line-height:150%" /><flowPara
         id="flowPara4260"
         style="font-size:7.82243204px;line-height:150%" /><flowPara
         id="flowPara4262"
         style="font-size:7.82243204px;line-height:150%" /><flowPara
         id="flowPara4264"
         style="font-size:7.82243204px;line-height:150%" /><flowPara
         id="flowPara4266"
         style="font-size:7.82243204px;line-height:150%" /><flowPara
         id="flowPara4268"
         style="font-size:7.82243204px;line-height:150%" /><flowPara
         id="flowPara4270"
         style="font-size:7.82243204px;line-height:150%" /><flowPara
         id="flowPara4272"
         style="font-size:7.82243204px;line-height:150%" /><flowPara
         id="flowPara4274"
         style="font-size:7.82243204px;line-height:150%" /><flowPara
         id="flowPara4276"
         style="font-size:7.82243204px;line-height:150%" /><flowPara
         id="flowPara4278"
         style="font-size:7.82243204px;line-height:150%" /><flowPara
         id="flowPara4280"
         style="font-size:7.82243204px;line-height:150%" /></flowRoot>    <rect
       style="opacity:1;fill:none;fill-opacity:1;stroke:#000000;stroke-width:0.60659933;stroke-linejoin:round;stroke-miterlimit:4;stroke-dasharray:none;stroke-dashoffset:0;stroke-opacity:1"
       id="rect4314"
       width="208.68909"
       height="8.6172409"
       x="30.894756"
       y="856.09033" />
    <rect
       style="opacity:1;fill:none;fill-opacity:1;stroke:#000000;stroke-width:0.59432167;stroke-linejoin:round;stroke-miterlimit:4;stroke-dasharray:none;stroke-dashoffset:0;stroke-opacity:1"
       id="rect4314-7"
       width="208.70137"
       height="8.2714558"
       x="30.871492"
       y="866.96722" />
    <path
       style="fill:none;fill-rule:evenodd;stroke:#000000;stroke-width:0.75562423px;stroke-linecap:butt;stroke-linejoin:miter;stroke-opacity:1"
       d="m 26.150436,834.66701 286.344094,0"
       id="path4331"
       inkscape:connector-curvature="0" />
    <path
       style="fill:none;fill-rule:evenodd;stroke:#000000;stroke-width:0.66838348px;stroke-linecap:butt;stroke-linejoin:miter;stroke-opacity:1"
       d="m 59.702346,825.46031 0,9.0711"
       id="path4335"
       inkscape:connector-curvature="0" />
  </g>
</svg>
